Untitled
…
library(readxl)

data <- read_excel("all_inclusive.xlsx")
#data <- read.xls("all_inclusive.xlsx", header = TRUE)
d <- data %>%
  select(time, group, confluence) %>%
  mutate(time = factor(time),
         group = factor(group))

d %>%
  group_by(time, group) %>%
  summarise(confluence_mean = mean(confluence))

## # A tibble: 64 x 3
## # Groups:   time [16]
##    time  group   confluence_mean
##    <fct> <fct>             <dbl>
##  1 0     cis               1    
##  2 0     cis+dex           1    
##  3 0     control           1    
##  4 0     dex               1    
##  5 4     cis               1.01 
##  6 4     cis+dex           0.959
##  7 4     control           1.34 
##  8 4     dex               1.29 
##  9 8     cis               1.13 
## 10 8     cis+dex           1.03 
## #  with 54 more rows

sum_d <- d %>%
  group_by(time, group) %>%
  summarise(confluence_mean = mean(confluence),
            confluence_ci = (sd(confluence)/ sqrt(n()))/2)

sum_d

## # A tibble: 64 x 4
## # Groups:   time [16]
##    time  group   confluence_mean confluence_ci
##    <fct> <fct>             <dbl>         <dbl>
##  1 0     cis               1           0      
##  2 0     cis+dex           1           0      
##  3 0     control           1           0      
##  4 0     dex               1           0      
##  5 4     cis               1.01        0.00282
##  6 4     cis+dex           0.959       0.0221 
##  7 4     control           1.34        0.0206 
##  8 4     dex               1.29        0.00822
##  9 8     cis               1.13        0.00123
## 10 8     cis+dex           1.03        0.0364 
## #  with 54 more rows
…
